{
    "composer": {
        "scripts": {
            "test": "phpunit"
        },
        "require": [
            "bensampo/laravel-enum",
            "laravel/passport",
            "rexlabs/laravel-smokescreen"
        ],
        "requireDev": [
            "phpunit/phpunit",
            "squibler/laravel-artisan",
            "squizlabs/php_codesniffer"
        ]
    },
    "packages": {
        "scripts": {},
        "dependencies": [],
        "devDependencies": [
            "cz-customizable"
        ],
        "configs": {
            "commitizen": {
                "path": "node_modules/cz-customizable"
            }
        }
    },
    "ignore": [
        "_dev", ".vscode"
    ],
    "artefacts": {
        ".cz-config.js": ".cz-config.js"
    }
}